^D:\CETI COLOMOS\7MO SEMESTRE\COMPILADORES E INTÉRPRETES\TERCER PARCIAL\PROYECTO DE COMPILADORES\PROYECTO COMPILADORES\STDAFX.CPP
D:\CETI COLOMOS\7MO SEMESTRE\COMPILADORES E INTéRPRETES\TERCER PARCIAL\PROYECTO DE COMPILADORES\PROYECTO COMPILADORES\DEBUG\PROYECTO COMPILADORES.PCH
D:\CETI COLOMOS\7MO SEMESTRE\COMPILADORES E INTéRPRETES\TERCER PARCIAL\PROYECTO DE COMPILADORES\PROYECTO COMPILADORES\DEBUG\STDAFX.OBJ
D:\CETI COLOMOS\7MO SEMESTRE\COMPILADORES E INTÉRPRETES\TERCER PARCIAL\PROYECTO DE COMPILADORES\PROYECTO COMPILADORES\DEBUG\VC110.PDB
^D:\CETI COLOMOS\7MO SEMESTRE\COMPILADORES E INTÉRPRETES\TERCER PARCIAL\PROYECTO DE COMPILADORES\PROYECTO COMPILADORES\PROYECTO COMPILADORES.CPP
D:\CETI COLOMOS\7MO SEMESTRE\COMPILADORES E INTéRPRETES\TERCER PARCIAL\PROYECTO DE COMPILADORES\PROYECTO COMPILADORES\DEBUG\PROYECTO COMPILADORES.OBJ
D:\CETI COLOMOS\7MO SEMESTRE\COMPILADORES E INTÉRPRETES\TERCER PARCIAL\PROYECTO DE COMPILADORES\PROYECTO COMPILADORES\DEBUG\VC110.PDB
